Landscape Metrics for Categorical Map Patterns in Vector Data • vectormetrics
…
## Shape index
vm_p_shape(vector_patches, class_col = "class", patch_col = "patch")
#> # A tibble: 40 × 5
#>    level class id    metric value
#>    <chr> <chr> <chr> <chr>  <dbl>
#>  1 patch 1     1     shape   1.66
#>  2 patch 1     2     shape   1.37
#>  3 patch 1     3     shape   1.51
#>  4 patch 1     4     shape   1.41
#>  5 patch 1     5     shape   1.13
#>  6 patch 1     6     shape   1.13
#>  7 patch 1     7     shape   1.13
#>  8 patch 1     8     shape   1.15
#>  9 patch 1     9     shape   1.13
#> 10 patch 1     10    shape   1.13
#> # ℹ 30 more rows
…
## Mean squareness
vm_l_square_mn(vector_patches)
#> # A tibble: 1 × 5
#>   level     class id    metric    value
#>   <chr>     <chr> <chr> <chr>     <dbl>
#> 1 landscape <NA>  <NA>  square_mn 0.845

Another utility function is get_axes() which calculates the length of the major and minor axes of the shape. It is used to calculate the elongation metric in vm_p_elong() but since length of axes might be useful information itself, get_axes() was exported as a separate function.

get_axes(vector_patches, class_col = "class")
#> # A tibble: 40 × 6
#>    level class id    metric    major minor
#>    <chr> <chr> <chr> <chr>     <dbl> <dbl>
#>  1 patch 1     1     main_axes 10.8   5.28
#>  2 patch 1     2     main_axes  9.64  7.84
#>  3 patch 1     3     main_axes  8.38  5.16
#>  4 patch 1     4     main_axes  3.6   2.22
#>  5 patch 1     5     main_axes  1.42  1.42
#>  6 patch 1     6     main_axes  1.42  1.42
#>  7 patch 1     7     main_axes  1.42  1.42
#>  8 patch 1     8     main_axes  4.24  2.82
#>  9 patch 1     9     main_axes  1.42  1.42
#> 10 patch 1     10    main_axes  1.42  1.42
#> # ℹ 30 more rows
…
