…
## Shape index
vm_p_shape(vector_patches, "class")
#> # A tibble: 30 x 5
#>    level class    id metric value
#>    <chr> <int> <int> <chr>  <dbl>
#>  1 patch     1     1 shape   1.13
#>  2 patch     1     2 shape   1.13
#>  3 patch     1     3 shape   1.87
#>  4 patch     1     4 shape   1.13
#>  5 patch     1     5 shape   1.55
#>  6 patch     1     6 shape   1.26
#>  7 patch     1     7 shape   1.20
#>  8 patch     1     8 shape   1.13
#>  9 patch     1     9 shape   2.14
#> 10 patch     1    10 shape   1.51
#> # i 20 more rows
…
## Mean squareness
vm_l_square_mn(vector_patches, "class")
#> # A tibble: 1 x 5
#>   level     class    id metric value
#>   <chr>     <int> <int> <chr>  <dbl>
#> 1 landscape    NA    NA sq_mn  0.804
```

``` r
get_axes(vector_patches, "class")
#> # A tibble: 30 x 6
#>    level class    id metric    major minor
#>    <chr> <int> <int> <chr>     <dbl> <dbl>
#>  1 patch     1     1 main_axes  1.42  1.42
#>  2 patch     1     2 main_axes  1.42  1.42
#>  3 patch     1     3 main_axes 17.0  11.5 
#>  4 patch     1     4 main_axes  1.42  1.42
#>  5 patch     1     5 main_axes  7.32  5.02
#>  6 patch     1     6 main_axes  3.88  2.68
#>  7 patch     1     7 main_axes  2.82  1.42
#>  8 patch     1     8 main_axes  1.42  1.42
#>  9 patch     1     9 main_axes 17.2  12.7 
#> 10 patch     1    10 main_axes  4.78  2.62
#> # i 20 more rows
```
…
