…
## References

Jiao, L., Liu, Y., & Li, H. (2012). Characterizing land-use classes in
remote sensing imagery by shape metrics. ISPRS Journal of Photogrammetry
and Remote Sensing, 72, 46–55.
https://doi.org/10.1016/j.isprsjprs.2012.05.012

## Examples

``` r
vm_p_comp(vector_patches, "class", "patch")
#> # A tibble: 40 × 5
#>    level class id    metric  value
#>    <chr> <chr> <chr> <chr>   <dbl>
#>  1 patch 1     11    compact 0.363
#>  2 patch 1     12    compact 0.531
#>  3 patch 1     13    compact 0.436
#>  4 patch 1     14    compact 0.503
#>  5 patch 1     15    compact 0.785
#>  6 patch 1     16    compact 0.785
#>  7 patch 1     17    compact 0.785
#>  8 patch 1     18    compact 0.754
#>  9 patch 1     19    compact 0.785
#> 10 patch 1     20    compact 0.785
#> # ℹ 30 more rows
```
