…
## References

McGarigal, K., SA Cushman, and E Ene. 2012. FRAGSTATS v4: Spatial
Pattern Analysis Program for Categorical and Continuous Maps. Computer
software program produced by the authors at the University of
Massachusetts, Amherst. Available at the following web site:
http://www.umass.edu/landeco/research/fragstats/fragstats.html

## Examples

``` r
vm_p_core(vector_patches, "class", "patch", edge_depth = 0.8)
#> # A tibble: 40 × 5
#>    level class id    metric     value
#>    <chr> <chr> <chr> <chr>      <dbl>
#>  1 patch 1     11    core   0.000784 
#>  2 patch 1     12    core   0.00178  
#>  3 patch 1     13    core   0.000503 
#>  4 patch 1     14    core   0        
#>  5 patch 1     15    core   0        
#>  6 patch 1     16    core   0        
#>  7 patch 1     17    core   0        
#>  8 patch 1     18    core   0.0000560
#>  9 patch 1     19    core   0        
#> 10 patch 1     20    core   0        
#> # ℹ 30 more rows
```
