…
- edge_depth:

  the fixed distance to the edge of the patch

## Value

the function returns tibble with the calculated values in column
"value", this function returns also some important information such as
level, class, patch id and metric name.

## Examples

``` r
vm_p_core(vector_patches, "class", "patch", edge_depth = 0.8)
#> # A tibble: 40 × 5
#>    level class id    metric     value
#>    <chr> <chr> <chr> <chr>      <dbl>
#>  1 patch 1     11    core   0.000784 
#>  2 patch 1     12    core   0.00178  
#>  3 patch 1     13    core   0.000503 
#>  4 patch 1     14    core   0        
#>  5 patch 1     15    core   0        
#>  6 patch 1     16    core   0        
#>  7 patch 1     17    core   0        
#>  8 patch 1     18    core   0.0000560
#>  9 patch 1     19    core   0        
#> 10 patch 1     20    core   0        
#> # ℹ 30 more rows
```
