…
## References

Basaraner, M., & Cetinkaya, S. (2017). Performance of shape indices and
classification schemes for characterising perceptual shape complexity of
building footprints in GIS. International Journal of Geographical
Information Science, 31(10), 1952–1977.
https://doi.org/10.1080/13658816.2017.1346257

## Examples

``` r
vm_p_eri(vector_patches, "class", "patch")
#> # A tibble: 40 × 5
#>    level class id    metric value
#>    <chr> <chr> <chr> <chr>  <dbl>
#>  1 patch 1     11    eri    0.737
#>  2 patch 1     12    eri    0.824
#>  3 patch 1     13    eri    0.745
#>  4 patch 1     14    eri    0.816
#>  5 patch 1     15    eri    1    
#>  6 patch 1     16    eri    1    
#>  7 patch 1     17    eri    1    
#>  8 patch 1     18    eri    1    
#>  9 patch 1     19    eri    1    
#> 10 patch 1     20    eri    1    
#> # ℹ 30 more rows
```
